…
    grid <- tibble(num_clusters = 2:20)

    folds <- vfold_cv(bitdfc_sample, v = 6)

    tune_cluster <- tune_cluster(
    kmeans_tune_wflow,
    resamples = folds,
    grid= grid,
    metrics = metric_set_clus
    )

    kmeans_metrics <- tune_cluster %>% collect_metrics()
    print(kmeans_metrics)

    ## # A tibble: 38 × 7
    ##    num_clusters .metric        .estimator  mean     n std_err .config           
    ##           <int> <chr>          <chr>      <dbl> <int>   <dbl> <chr>             
    ##  1            2 silhouette_avg standard   0.567     6  0.0987 Preprocessor1_Mod…
    ##  2            2 sse_ratio      standard   0.831     6  0.0213 Preprocessor1_Mod…
    ##  3            3 silhouette_avg standard   0.472     6  0.0587 Preprocessor1_Mod…
    ##  4            3 sse_ratio      standard   0.636     6  0.0273 Preprocessor1_Mod…
    ##  5            4 silhouette_avg standard   0.480     6  0.0115 Preprocessor1_Mod…
    ##  6            4 sse_ratio      standard   0.529     6  0.0101 Preprocessor1_Mod…
    ##  7            5 silhouette_avg standard   0.473     6  0.0374 Preprocessor1_Mod…
    ##  8            5 sse_ratio      standard   0.392     6  0.0338 Preprocessor1_Mod…
    ##  9            6 silhouette_avg standard   0.445     6  0.0299 Preprocessor1_Mod…
    ## 10            6 sse_ratio      standard   0.336     6  0.0304 Preprocessor1_Mod…
    ## # ℹ 28 more rows
…
    knn_wf <- workflow() %>% 
      add_recipe(rec) %>% 
      add_model(knn_spec) 

    k_grid <- tibble(neighbors=seq(3,20,1))

    knn_fit_rs <- knn_wf %>% 
      tune_grid(resamples = folds2,
                grid = k_grid,
                    metrics = multi_metric)

    collect_metrics(knn_fit_rs)

    ## # A tibble: 36 × 7
    ##    neighbors .metric  .estimator  mean     n std_err .config              
    ##        <dbl> <chr>    <chr>      <dbl> <int>   <dbl> <chr>                
    ##  1         3 accuracy binary     0.813     5 0.00512 Preprocessor1_Model01
    ##  2         3 kap      binary     0.619     5 0.0107  Preprocessor1_Model01
    ##  3         4 accuracy binary     0.813     5 0.00416 Preprocessor1_Model02
    ##  4         4 kap      binary     0.618     5 0.00878 Preprocessor1_Model02
    ##  5         5 accuracy binary     0.828     5 0.00381 Preprocessor1_Model03
    ##  6         5 kap      binary     0.650     5 0.00781 Preprocessor1_Model03
    ##  7         6 accuracy binary     0.828     5 0.00410 Preprocessor1_Model04
    ##  8         6 kap      binary     0.650     5 0.00852 Preprocessor1_Model04
    ##  9         7 accuracy binary     0.829     5 0.00333 Preprocessor1_Model05
    ## 10         7 kap      binary     0.652     5 0.00694 Preprocessor1_Model05
    ## # ℹ 26 more rows
…
