Gambling the Game of Probabilities that may Provide Insight into Non Probablitistic Behavior
…
Outcome Variables:

Clusters that may illustrate different “Types of Players”

Modeling with K-Means Clustering Analysis

We want to visualize the trends within high-dimensional data, where we may see patterns emerge that may represent types of players

Attaching package: 'tidyclust'

The following objects are masked from 'package:parsnip':

    knit_engine_docs, list_md_problems

# A tibble: 38 × 7
   num_clusters .metric        .estimator  mean     n std_err .config           
          <int> <chr>          <chr>      <dbl> <int>   <dbl> <chr>             
 1            2 silhouette_avg standard   0.567     6  0.0987 Preprocessor1_Mod…
 2            2 sse_ratio      standard   0.831     6  0.0213 Preprocessor1_Mod…
 3            3 silhouette_avg standard   0.472     6  0.0587 Preprocessor1_Mod…
 4            3 sse_ratio      standard   0.636     6  0.0273 Preprocessor1_Mod…
 5            4 silhouette_avg standard   0.480     6  0.0115 Preprocessor1_Mod…
 6            4 sse_ratio      standard   0.529     6  0.0101 Preprocessor1_Mod…
 7            5 silhouette_avg standard   0.473     6  0.0374 Preprocessor1_Mod…
 8            5 sse_ratio      standard   0.392     6  0.0338 Preprocessor1_Mod…
 9            6 silhouette_avg standard   0.445     6  0.0299 Preprocessor1_Mod…
10            6 sse_ratio      standard   0.336     6  0.0304 Preprocessor1_Mod…
# ℹ 28 more rows
…
Aim 3: Explore the win or loss outcome two players playing the same game

Predictor Variables:

Bet, PlayDate, Bet, Bonus, Frequent plalyer, Number of plays, Average bet, Average Cash out

Outcome Variable:

Win (binary variable, where 0 = loss, 1 = win)

Modeling with K-Nearest-Neighbors (kNN)

Used to make predictions of a binary outcome (Win)

# A tibble: 36 × 7
   neighbors .metric  .estimator  mean     n std_err .config              
       <dbl> <chr>    <chr>      <dbl> <int>   <dbl> <chr>                
 1         3 accuracy binary     0.813     5 0.00512 Preprocessor1_Model01
 2         3 kap      binary     0.619     5 0.0107  Preprocessor1_Model01
 3         4 accuracy binary     0.813     5 0.00416 Preprocessor1_Model02
 4         4 kap      binary     0.618     5 0.00878 Preprocessor1_Model02
 5         5 accuracy binary     0.828     5 0.00381 Preprocessor1_Model03
 6         5 kap      binary     0.650     5 0.00781 Preprocessor1_Model03
 7         6 accuracy binary     0.828     5 0.00410 Preprocessor1_Model04
 8         6 kap      binary     0.650     5 0.00852 Preprocessor1_Model04
 9         7 accuracy binary     0.829     5 0.00333 Preprocessor1_Model05
10         7 kap      binary     0.652     5 0.00694 Preprocessor1_Model05
# ℹ 26 more rows
…
